<?xml version="1.0" encoding="utf-8"?>
<!-- Generator: Adobe Illustrator 24.0.1, SVG Export Plug-In . SVG Version: 6.00 Build 0)  -->
<svg version="1.1" id="Coloured" xmlns="http://www.w3.org/2000/svg" xmlns:xlink="http://www.w3.org/1999/xlink" x="0px" y="0px"
	 viewBox="0 0 1024 1024" style="enable-background:new 0 0 1024 1024;" xml:space="preserve">
<style type="text/css">
	.st0{fill:#010101;}
	.st1{fill:#3F61AD;}
</style>
<title>home</title>
<g>
	<path class="st0" d="M1013.1,454.1L527.7,98.7c-9.4-6.9-22.1-6.9-31.4,0L10.9,454.1c-11.9,8.7-14.4,25.3-5.8,37.2
		c8.7,11.9,25.3,14.4,37.2,5.8l0,0l73.8-54c-2.1,3.9-3.2,8.2-3.2,12.6v450.1c0,14.7,11.9,26.6,26.6,26.6h266.1
		c13.9,0,25.4-10.7,26.5-24.5c0.1-0.7,0.1-1.4,0.1-2.1V648c0-44.1,35.7-79.8,79.8-79.8s79.8,35.7,79.8,79.8v257.8c0,0.7,0,1.4,0.1,2
		c1.1,13.9,12.6,24.6,26.5,24.6h266.1c14.7,0,26.6-11.9,26.6-26.6V455.7c0-4.4-1.1-8.8-3.2-12.6l73.8,54c11.9,8.7,28.5,6.1,37.2-5.7
		S1025,462.8,1013.1,454.1z"/>
	<path class="st1" d="M884.5,429.1c-14.7,0-26.6,11.9-26.6,26.6v423.5H645V648c0-73.4-59.7-133-133-133c-73.4,0-133,59.7-133,133
		v231.2H166.1V455.7c0-14.7-11.9-26.6-26.6-26.6c-1.7,0-3.4,0.2-5,0.5L512,153.2l377.5,276.4C887.8,429.2,886.2,429.1,884.5,429.1z"
		/>
</g>
</svg>
