<?xml version="1.0" encoding="utf-8"?>
<!-- Generator: Adobe Illustrator 24.0.1, SVG Export Plug-In . SVG Version: 6.00 Build 0)  -->
<svg version="1.1" id="Grey" xmlns="http://www.w3.org/2000/svg" xmlns:xlink="http://www.w3.org/1999/xlink" x="0px" y="0px" height="30" width="30"
	 viewBox="0 0 1024 1024" style="enable-background:new 0 0 0 0;" xml:space="preserve">
<style type="text/css">
	.st0{fill:#FFFFFF;}
	.st1{fill:#555555;}
</style>
<title>reports_0</title>
<g>
	<path class="st0" d="M321,12c-35.3,0-64,28.7-64,64v808h492v48c0,35.3,28.7,64,64,64l0,0c35.3,0,64-28.7,64-64V76
		c0-29.1,19.6-54.6,47.8-61.9L925,12L321,12z"/>
	<path class="st1" d="M940,0H320c-11,0-20,9-20,20s9,20,20,20h548.5C860.3,53.2,856,68.5,856,84v262c0,11,9,20,20,20s20-9,20-20v-62
		h108c11,0,20-9,20-20V84C1023.9,37.6,986.3,0.1,940,0z M984,244h-88V84c0-24.3,19.7-44,44-44s44,19.7,44,44c0,0,0,0,0,0L984,244
		L984,244z"/>
	<path class="st1" d="M1002.1,815L871.5,684.4c15.5-31.7,23.6-66.5,23.6-101.8c0-127.9-104.1-232-232-232s-232,104.1-232,232
		c0,28.4,5.2,56.5,15.4,83L423,689.1l-96.3-96.3c-7.8-7.8-20.5-7.8-28.3,0c0,0,0,0,0,0L276,615.3V432.7c0-11-9-20-20-20
		c-11,0-20,9-20,20v222.6L55.1,836.1c-7.8,7.8-7.8,20.5,0,28.3c7.8,7.8,20.5,7.8,28.3,0L236,711.9V856h-88c-11,0-20,9-20,20v64
		c0.1,46.4,37.6,83.9,84,84h600c46.4-0.1,83.9-37.6,84-84v-17.2c13.9,13.6,32.7,21.1,52.1,21c0.1,0,0.3,0,0.4,0
		c20,0,39.2-8,53.3-22.2C1031.3,892.1,1031.4,844.3,1002.1,815z M663.1,390.6c105.9,0,192,86.1,192,192s-86.1,192-192,192
		c-70.4,0-135.1-38.5-168.7-100.3L610,558.7v45.4c0,11,9,20,20,20s20-9,20-20v-96c0-11-9-20-20-20h-96c-11,0-20,9-20,20
		c0,11,8.9,20,20,20h50L478.1,634c-4.7-16.7-7-34-7-51.4C471.1,476.7,557.2,390.6,663.1,390.6z M212,984c-24.3,0-44-19.7-44-44v-44
		h560v24c0,0.7,0,1.3,0.1,1.9c-0.1,0.6-0.1,1.3-0.1,1.9V940c0,15.5,4.3,30.8,12.5,44L212,984L212,984z M856,940
		c0,24.3-19.7,44-44,44s-44-19.7-44-44v-16.1c0-0.7,0-1.3-0.1-1.9c0.1-0.6,0.1-1.3,0.1-1.9v-44c0-11-9-20-20-20H276V671.8l36.7-36.7
		l96.3,96.3c7.8,7.8,20.5,7.8,28.3,0l28-28c40.8,66.6,114.3,111.1,197.9,111.1c35.1,0,69.8-7.9,101.3-23.3l91.6,91.6V940z
		 M973.5,893.4c-6.7,6.7-15.7,10.5-25.2,10.5c-0.1,0-0.1,0-0.2,0c-9.2,0.1-18.1-3.6-24.7-10.1L799.7,770
		c19.3-14.1,36.3-31.1,50.5-50.4l123.7,123.7C987.6,857,987.4,879.5,973.5,893.4z"/>
	<path class="st1" d="M789.7,562.6c-11,0-20,9-20,20c-0.1,58.9-47.8,106.6-106.6,106.6c-11,0-20,9-20,20s9,20,20,20
		c80.8,0,146.6-65.8,146.6-146.6C809.7,571.6,800.7,562.6,789.7,562.6z"/>
	<path class="st1" d="M512.2,344H494V210c0-11-9-20-20-20h-91.8c-11,0-20,9-20,20v134H330V128c0-11-9-20-20-20h-88c-11,0-20,9-20,20
		v216h-32v-88c0-11-9-20-20-20H62c-11,0-20,9-20,20v88H20c-11,0-20,9-20,20s9,20,20,20h492.2c11,0,20-9,20-20S523.3,344,512.2,344z
		 M130,344H82v-68h48L130,344z M290,344h-48V148h48V344z M454,344h-51.8V230H454V344z"/>
	<path class="st1" d="M674.9,108H520c-11,0-20,9-20,20s9,20,20,20h154.9c11,0,20-8.9,20-20C694.9,117,686,108,674.9,108
		C674.9,108,674.9,108,674.9,108z"/>
	<path class="st1" d="M788,113.9c-7.8-7.8-20.5-7.8-28.3,0s-7.8,20.5,0,28.3c7.8,7.8,20.5,7.8,28.3,0c3.7-3.7,5.8-8.8,5.8-14.1
		C793.8,122.7,791.7,117.6,788,113.9z"/>
	<path class="st1" d="M597.4,196h-32.8c-11,0-20,9-20,20s9,20,20,20h32.8c11,0,20-9,20-20S608.5,196,597.4,196z"/>
	<path class="st1" d="M773.8,196h-98.9c-11,0-20,9-20,20s9,20,20,20h98.9c11,0,20-9,20-20S784.9,196,773.8,196z"/>
	<path class="st1" d="M34.2,885.4c-7.8-7.8-20.5-7.8-28.3,0s-7.8,20.5,0,28.3s20.5,7.8,28.3,0c3.7-3.7,5.8-8.8,5.8-14.1
		C40,894.2,37.9,889.1,34.2,885.4z"/>
</g>
</svg>
