<svg xmlns="http://www.w3.org/2000/svg" width="67" height="67" viewBox="0 0 67 67">
  <defs>
    <style>
      .cls-1, .cls-3 {
        fill: #f27593;
      }

      .cls-1 {
        opacity: 0.3;
      }

      .cls-2, .cls-4 {
        fill: #ff4d4d;
      }

      .cls-2 {
        opacity: 0.2;
      }

      .cls-5 {
        fill: #d80f0e;
      }

      .cls-6 {
        fill: #fff;
      }
    </style>
  </defs>
  <g id="temperature_icon" transform="translate(279 -1983)">
    <rect id="Rectangle_393" data-name="Rectangle 393" class="cls-1" width="67" height="67" rx="33.5" transform="translate(-279 1983)"/>
    <path id="Union_8" data-name="Union 8" class="cls-2" d="M0,31.927a9.535,9.535,0,0,1,4.246-7.878V5.6A5.731,5.731,0,0,1,10.1,0a5.732,5.732,0,0,1,5.854,5.6V24.049A9.537,9.537,0,0,1,20.2,31.927a9.889,9.889,0,0,1-10.1,9.665A9.889,9.889,0,0,1,0,31.927ZM23.687,16.493a3.432,3.432,0,0,1-1.08-2.753V8.881c0-2.263,1.338-3.562,3.671-3.562,2.172,0,3.688,1.173,3.688,2.852,0,.656-.276.785-.753.785s-.733-.181-.752-.509c-.043-.829-.451-1.816-2.148-1.816a1.973,1.973,0,0,0-2.2,2.25V13.74a1.977,1.977,0,0,0,2.25,2.249,1.815,1.815,0,0,0,2.1-1.884c.035-.335.289-.5.752-.5s.753.134.753.8c0,1.707-1.524,2.9-3.7,2.9A3.905,3.905,0,0,1,23.687,16.493ZM19.2,3.5a2.175,2.175,0,0,1,4.346,0,2.175,2.175,0,0,1-4.346,0Zm1.33,0a.843.843,0,0,0,1.685,0,.843.843,0,0,0-1.685,0Z" transform="translate(-258 1998)"/>
    <g id="temperature" transform="translate(-261.502 1994.563)">
      <path id="Path_4164" data-name="Path 4164" class="cls-3" d="M200.756,40.013V21.566a5.859,5.859,0,0,0-11.707,0V40.013A9.536,9.536,0,0,0,184.8,47.89a10.109,10.109,0,0,0,20.2,0,9.536,9.536,0,0,0-4.246-7.878Zm0,0" transform="translate(-183.301 -14.527)"/>
      <path id="Path_4165" data-name="Path 4165" class="cls-4" d="M282.585,125.531a6.558,6.558,0,0,1-13.1,0,6.213,6.213,0,0,1,2.757-5.112l1.489-1.015v-20.2a2.308,2.308,0,0,1,4.612,0v20.2l1.489,1.015a6.211,6.211,0,0,1,2.756,5.112Zm0,0" transform="translate(-264.433 -92.168)"/>
      <path id="Path_4166" data-name="Path 4166" class="cls-5" d="M276.033,131.8a6.423,6.423,0,0,1-6.551-6.27,6.213,6.213,0,0,1,2.756-5.112l1.489-1.015v-20.2A2.26,2.26,0,0,1,276.033,97c-.725,0-.873.99-.873,2.207v20.2a8.037,8.037,0,0,0-2.866,6.127C272.294,128.989,273.972,131.8,276.033,131.8Zm0,0" transform="translate(-264.433 -92.168)"/>
      <path id="Path_4167" data-name="Path 4167" class="cls-6" d="M375.462,99.207v7.374h-4.639V99.207a2.323,2.323,0,0,1,4.639,0Zm0,0" transform="translate(-361.556 -92.168)"/>
      <path id="Path_4168" data-name="Path 4168" class="cls-3" d="M731.034,151.213c-.464,0-.717.17-.752.5a1.815,1.815,0,0,1-2.1,1.884,1.977,1.977,0,0,1-2.25-2.25v-4.859a1.972,1.972,0,0,1,2.2-2.25c1.7,0,2.105.988,2.149,1.816.019.328.286.508.752.508s.753-.128.753-.785c0-1.679-1.516-2.851-3.688-2.851-2.333,0-3.671,1.3-3.671,3.562v4.859a3.432,3.432,0,0,0,1.08,2.754,3.908,3.908,0,0,0,2.574.808c2.181,0,3.7-1.192,3.7-2.9C731.787,151.347,731.5,151.213,731.034,151.213Zm0,0" transform="translate(-700.319 -136.175)"/>
      <path id="Path_4169" data-name="Path 4169" class="cls-3" d="M647.5,52.016a2.175,2.175,0,1,0-2.173,2.08A2.13,2.13,0,0,0,647.5,52.016Zm-2.173.806a.807.807,0,1,1,.842-.806A.826.826,0,0,1,645.325,52.823Zm0,0" transform="translate(-622.448 -47.076)"/>
    </g>
  </g>
</svg>
